{
  "project_info": {
    "project_number": "991361358672",
    "firebase_url": "https://servisolucionesapp-default-rtdb.firebaseio.com",
    "project_id": "servisolucionesapp",
    "storage_bucket": "servisolucionesapp.appspot.com"
  },
  "client": [
    {
      "client_info": {
        "mobilesdk_app_id": "1:991361358672:android:5b41068c43ffee5dfaaa55",
        "android_client_info": {
          "package_name": "com.example.appmovil_proyectomintic_grupo2_8"
        }
      },
      "oauth_client": [
        {
          "client_id": "991361358672-1se5k0ehlt02umo8odpjlqe08nq9jokf.apps.googleusercontent.com",
          "client_type": 1,
          "android_info": {
            "package_name": "com.example.appmovil_proyectomintic_grupo2_8",
            "certificate_hash": "1b45e56e03aa0d19fa3ec7e0fd948ad862962885"
          }
        },
        {
          "client_id": "991361358672-ikprhq87ee4lfgarf7h1211s9hb79qfi.apps.googleusercontent.com",
          "client_type": 3
        }
      ],
      "api_key": [
        {
          "current_key": "AIzaSyBOr31NitvUvyu-TJvX3iMBNX7-IbNc1eY"
        }
      ],
      "services": {
        "appinvite_service": {
          "other_platform_oauth_client": [
            {
              "client_id": "991361358672-ikprhq87ee4lfgarf7h1211s9hb79qfi.apps.googleusercontent.com",
              "client_type": 3
            }
          ]
        }
      }
    }
  ],
  "configuration_version": "1"
}